Board/Ultrasonic_rangefinder/simulation/qsim/ultrasonic_rangfinder_display.msim.vcd
$comment
	File created using the following command:
		vcd file ultrasonic_rangfinder_display.msim.vcd -direction
$end
$date
	Sun Apr 18 14:20:31 2021
$end
$version
	ModelSim Version 2020.1
$end
$timescale
	1ps
$end

$scope module usrd_vhd_vec_tst $end
$var wire 1 ! clock_50 $end
$var wire 1 " echo $end
$var wire 1 # HEX0 [6] $end
$var wire 1 $ HEX0 [5] $end
$var wire 1 % HEX0 [4] $end
$var wire 1 & HEX0 [3] $end
$var wire 1 ' HEX0 [2] $end
$var wire 1 ( HEX0 [1] $end
$var wire 1 ) HEX0 [0] $end
$var wire 1 * HEX1 [6] $end
$var wire 1 + HEX1 [5] $end
$var wire 1 , HEX1 [4] $end
$var wire 1 - HEX1 [3] $end
$var wire 1 . HEX1 [2] $end
$var wire 1 / HEX1 [1] $end
$var wire 1 0 HEX1 [0] $end
$var wire 1 1 HEX2 [6] $end
$var wire 1 2 HEX2 [5] $end
$var wire 1 3 HEX2 [4] $end
$var wire 1 4 HEX2 [3] $end
$var wire 1 5 HEX2 [2] $end
$var wire 1 6 HEX2 [1] $end
$var wire 1 7 HEX2 [0] $end
$var wire 1 8 trigger $end

$scope module i1 $end
$var wire 1 9 gnd $end
$var wire 1 : vcc $end
$var wire 1 ; unknown $end
$var wire 1 < devoe $end
$var wire 1 = devclrn $end
$var wire 1 > devpor $end
$var wire 1 ? ww_devoe $end
$var wire 1 @ ww_devclrn $end
$var wire 1 A ww_devpor $end
$var wire 1 B ww_clock_50 $end
$var wire 1 C ww_echo $end
$var wire 1 D ww_trigger $end
$var wire 1 E ww_HEX0 [6] $end
$var wire 1 F ww_HEX0 [5] $end
$var wire 1 G ww_HEX0 [4] $end
$var wire 1 H ww_HEX0 [3] $end
$var wire 1 I ww_HEX0 [2] $end
$var wire 1 J ww_HEX0 [1] $end
$var wire 1 K ww_HEX0 [0] $end
$var wire 1 L ww_HEX1 [6] $end
$var wire 1 M ww_HEX1 [5] $end
$var wire 1 N ww_HEX1 [4] $end
$var wire 1 O ww_HEX1 [3] $end
$var wire 1 P ww_HEX1 [2] $end
$var wire 1 Q ww_HEX1 [1] $end
$var wire 1 R ww_HEX1 [0] $end
$var wire 1 S ww_HEX2 [6] $end
$var wire 1 T ww_HEX2 [5] $end
$var wire 1 U ww_HEX2 [4] $end
$var wire 1 V ww_HEX2 [3] $end
$var wire 1 W ww_HEX2 [2] $end
$var wire 1 X ww_HEX2 [1] $end
$var wire 1 Y ww_HEX2 [0] $end
$var wire 1 Z \~QUARTUS_CREATED_GND~I_combout\ $end
$var wire 1 [ \clock_50~input_o\ $end
$var wire 1 \ \clock_50~inputCLKENA0_outclk\ $end
$var wire 1 ] \USR|Add0~21_sumout\ $end
$var wire 1 ^ \USR|Add0~14\ $end
$var wire 1 _ \USR|Add0~9_sumout\ $end
$var wire 1 ` \USR|Add0~42\ $end
$var wire 1 a \USR|Add0~53_sumout\ $end
$var wire 1 b \USR|Add0~54\ $end
$var wire 1 c \USR|Add0~37_sumout\ $end
$var wire 1 d \USR|Add0~38\ $end
$var wire 1 e \USR|Add0~49_sumout\ $end
$var wire 1 f \echo~input_o\ $end
$var wire 1 g \USR|nanos[15]~0_combout\ $end
$var wire 1 h \USR|Add0~10\ $end
$var wire 1 i \USR|Add0~5_sumout\ $end
$var wire 1 j \USR|Add0~6\ $end
$var wire 1 k \USR|Add0~1_sumout\ $end
$var wire 1 l \USR|Add0~2\ $end
$var wire 1 m \USR|Add0~33_sumout\ $end
$var wire 1 n \USR|Add0~34\ $end
$var wire 1 o \USR|Add0~29_sumout\ $end
$var wire 1 p \USR|Add0~30\ $end
$var wire 1 q \USR|Add0~45_sumout\ $end
$var wire 1 r \USR|Add0~46\ $end
$var wire 1 s \USR|Add0~41_sumout\ $end
$var wire 1 t \USR|LessThan2~0_combout\ $end
$var wire 1 u \USR|Add0~22\ $end
$var wire 1 v \USR|Add0~25_sumout\ $end
$var wire 1 w \USR|Add0~26\ $end
$var wire 1 x \USR|Add0~17_sumout\ $end
$var wire 1 y \USR|Add0~18\ $end
$var wire 1 z \USR|Add0~13_sumout\ $end
$var wire 1 { \USR|q_trigger~0_combout\ $end
$var wire 1 | \USR|Equal0~1_combout\ $end
$var wire 1 } \USR|q_trigger~1_combout\ $end
$var wire 1 ~ \USR|LessThan1~0_combout\ $end
$var wire 1 !! \USR|q_trigger~2_combout\ $end
$var wire 1 "! \USR|Equal0~0_combout\ $end
$var wire 1 #! \USR|q_trigger~3_combout\ $end
$var wire 1 $! \USR|Equal0~3_combout\ $end
$var wire 1 %! \USR|Equal0~2_combout\ $end
$var wire 1 &! \USR|teiler~2_combout\ $end
$var wire 1 '! \USR|teiler[2]~DUPLICATE_q\ $end
$var wire 1 (! \USR|teiler~3_combout\ $end
$var wire 1 )! \USR|Add1~1_combout\ $end
$var wire 1 *! \USR|teiler~1_combout\ $end
$var wire 1 +! \USR|Add1~0_combout\ $end
$var wire 1 ,! \USR|teiler~0_combout\ $end
$var wire 1 -! \USR|process_0~0_combout\ $end
$var wire 1 .! \USR|clk_mm~q\ $end
$var wire 1 /! \USR|icnt_mm~4_combout\ $end
$var wire 1 0! \USR|icnt_mm~3_combout\ $end
$var wire 1 1! \USR|Add4~0_combout\ $end
$var wire 1 2! \USR|icnt_mm~1_combout\ $end
$var wire 1 3! \USR|Equal1~0_combout\ $end
$var wire 1 4! \USR|icnt_mm~0_combout\ $end
$var wire 1 5! \Anzeige_1|Mux6~0_combout\ $end
$var wire 1 6! \Anzeige_1|Mux5~0_combout\ $end
$var wire 1 7! \Anzeige_1|Mux4~0_combout\ $end
$var wire 1 8! \Anzeige_1|Mux3~0_combout\ $end
$var wire 1 9! \Anzeige_1|Mux2~0_combout\ $end
$var wire 1 :! \Anzeige_1|Mux1~0_combout\ $end
$var wire 1 ;! \Anzeige_1|Mux0~0_combout\ $end
$var wire 1 <! \USR|icnt_cm~0_combout\ $end
$var wire 1 =! \USR|icnt_mm[3]~2_combout\ $end
$var wire 1 >! \USR|icnt_cm~1_combout\ $end
$var wire 1 ?! \USR|icnt_cm~3_combout\ $end
$var wire 1 @! \USR|Equal2~0_combout\ $end
$var wire 1 A! \USR|Add3~0_combout\ $end
$var wire 1 B! \USR|icnt_cm~2_combout\ $end
$var wire 1 C! \USR|q_cm[3]~feeder_combout\ $end
$var wire 1 D! \USR|q_cm[2]~feeder_combout\ $end
$var wire 1 E! \Anzeige_2|Mux6~0_combout\ $end
$var wire 1 F! \Anzeige_2|Mux5~0_combout\ $end
$var wire 1 G! \Anzeige_2|Mux4~0_combout\ $end
$var wire 1 H! \Anzeige_2|Mux3~0_combout\ $end
$var wire 1 I! \Anzeige_2|Mux2~0_combout\ $end
$var wire 1 J! \Anzeige_2|Mux1~0_combout\ $end
$var wire 1 K! \Anzeige_2|Mux0~0_combout\ $end
$var wire 1 L! \USR|icnt_dm~4_combout\ $end
$var wire 1 M! \USR|icnt_dm[3]~0_combout\ $end
$var wire 1 N! \USR|q_dm[0]~feeder_combout\ $end
$var wire 1 O! \USR|Add2~0_combout\ $end
$var wire 1 P! \USR|icnt_dm~2_combout\ $end
$var wire 1 Q! \USR|Equal3~0_combout\ $end
$var wire 1 R! \USR|icnt_dm~1_combout\ $end
$var wire 1 S! \USR|icnt_dm~3_combout\ $end
$var wire 1 T! \USR|q_dm[1]~feeder_combout\ $end
$var wire 1 U! \Anzeige_3|Mux6~0_combout\ $end
$var wire 1 V! \Anzeige_3|Mux5~0_combout\ $end
$var wire 1 W! \Anzeige_3|Mux4~0_combout\ $end
$var wire 1 X! \Anzeige_3|Mux3~0_combout\ $end
$var wire 1 Y! \Anzeige_3|Mux2~0_combout\ $end
$var wire 1 Z! \Anzeige_3|Mux1~0_combout\ $end
$var wire 1 [! \Anzeige_3|Mux0~0_combout\ $end
$var wire 1 \! \USR|nanos\ [15] $end
$var wire 1 ]! \USR|nanos\ [14] $end
$var wire 1 ^! \USR|nanos\ [13] $end
$var wire 1 _! \USR|nanos\ [12] $end
$var wire 1 `! \USR|nanos\ [11] $end
$var wire 1 a! \USR|nanos\ [10] $end
$var wire 1 b! \USR|nanos\ [9] $end
$var wire 1 c! \USR|nanos\ [8] $end
$var wire 1 d! \USR|nanos\ [7] $end
$var wire 1 e! \USR|nanos\ [6] $end
$var wire 1 f! \USR|nanos\ [5] $end
$var wire 1 g! \USR|nanos\ [4] $end
$var wire 1 h! \USR|nanos\ [3] $end
$var wire 1 i! \USR|nanos\ [2] $end
$var wire 1 j! \USR|nanos\ [1] $end
$var wire 1 k! \USR|nanos\ [0] $end
$var wire 1 l! \USR|q_mm\ [3] $end
$var wire 1 m! \USR|q_mm\ [2] $end
$var wire 1 n! \USR|q_mm\ [1] $end
$var wire 1 o! \USR|q_mm\ [0] $end
$var wire 1 p! \USR|q_cm\ [3] $end
$var wire 1 q! \USR|q_cm\ [2] $end
$var wire 1 r! \USR|q_cm\ [1] $end
$var wire 1 s! \USR|q_cm\ [0] $end
$var wire 1 t! \USR|q_dm\ [3] $end
$var wire 1 u! \USR|q_dm\ [2] $end
$var wire 1 v! \USR|q_dm\ [1] $end
$var wire 1 w! \USR|q_dm\ [0] $end
$var wire 1 x! \USR|icnt_mm\ [3] $end
$var wire 1 y! \USR|icnt_mm\ [2] $end
$var wire 1 z! \USR|icnt_mm\ [1] $end
$var wire 1 {! \USR|icnt_mm\ [0] $end
$var wire 1 |! \USR|icnt_cm\ [3] $end
$var wire 1 }! \USR|icnt_cm\ [2] $end
$var wire 1 ~! \USR|icnt_cm\ [1] $end
$var wire 1 !" \USR|icnt_cm\ [0] $end
$var wire 1 "" \USR|icnt_dm\ [3] $end
$var wire 1 #" \USR|icnt_dm\ [2] $end
$var wire 1 $" \USR|icnt_dm\ [1] $end
$var wire 1 %" \USR|icnt_dm\ [0] $end
$var wire 1 &" \USR|teiler\ [7] $end
$var wire 1 '" \USR|teiler\ [6] $end
$var wire 1 (" \USR|teiler\ [5] $end
$var wire 1 )" \USR|teiler\ [4] $end
$var wire 1 *" \USR|teiler\ [3] $end
$var wire 1 +" \USR|teiler\ [2] $end
$var wire 1 ," \USR|teiler\ [1] $end
$var wire 1 -" \USR|teiler\ [0] $end
$var wire 1 ." \USR|ALT_INV_q_mm\ [3] $end
$var wire 1 /" \USR|ALT_INV_q_mm\ [2] $end
$var wire 1 0" \USR|ALT_INV_q_mm\ [1] $end
$var wire 1 1" \USR|ALT_INV_q_mm\ [0] $end
$var wire 1 2" \USR|ALT_INV_q_trigger~3_combout\ $end
$var wire 1 3" \USR|ALT_INV_q_trigger~2_combout\ $end
$var wire 1 4" \USR|ALT_INV_q_trigger~1_combout\ $end
$var wire 1 5" \USR|ALT_INV_Equal0~1_combout\ $end
$var wire 1 6" \USR|ALT_INV_Equal0~0_combout\ $end
$var wire 1 7" \USR|ALT_INV_q_trigger~0_combout\ $end
$var wire 1 8" \USR|ALT_INV_LessThan1~0_combout\ $end
$var wire 1 9" \USR|ALT_INV_nanos\ [15] $end
$var wire 1 :" \USR|ALT_INV_nanos\ [14] $end
$var wire 1 ;" \USR|ALT_INV_nanos\ [13] $end
$var wire 1 <" \USR|ALT_INV_nanos\ [12] $end
$var wire 1 =" \USR|ALT_INV_nanos\ [11] $end
$var wire 1 >" \USR|ALT_INV_nanos\ [10] $end
$var wire 1 ?" \USR|ALT_INV_nanos\ [9] $end
$var wire 1 @" \USR|ALT_INV_nanos\ [8] $end
$var wire 1 A" \USR|ALT_INV_nanos\ [7] $end
$var wire 1 B" \USR|ALT_INV_nanos\ [6] $end
$var wire 1 C" \USR|ALT_INV_nanos\ [5] $end
$var wire 1 D" \USR|ALT_INV_nanos\ [4] $end
$var wire 1 E" \USR|ALT_INV_nanos\ [3] $end
$var wire 1 F" \USR|ALT_INV_nanos\ [2] $end
$var wire 1 G" \USR|ALT_INV_teiler[2]~DUPLICATE_q\ $end
$var wire 1 H" \ALT_INV_echo~input_o\ $end
$var wire 1 I" \USR|ALT_INV_Add1~1_combout\ $end
$var wire 1 J" \USR|ALT_INV_Add1~0_combout\ $end
$var wire 1 K" \USR|ALT_INV_teiler\ [5] $end
$var wire 1 L" \USR|ALT_INV_teiler\ [4] $end
$var wire 1 M" \USR|ALT_INV_teiler\ [3] $end
$var wire 1 N" \USR|ALT_INV_teiler\ [2] $end
$var wire 1 O" \USR|ALT_INV_Add2~0_combout\ $end
$var wire 1 P" \USR|ALT_INV_Equal3~0_combout\ $end
$var wire 1 Q" \USR|ALT_INV_Add3~0_combout\ $end
$var wire 1 R" \USR|ALT_INV_Equal2~0_combout\ $end
$var wire 1 S" \USR|ALT_INV_Add4~0_combout\ $end
$var wire 1 T" \USR|ALT_INV_Equal1~0_combout\ $end
$var wire 1 U" \USR|ALT_INV_Equal0~3_combout\ $end
$var wire 1 V" \USR|ALT_INV_Equal0~2_combout\ $end
$var wire 1 W" \USR|ALT_INV_icnt_dm\ [3] $end
$var wire 1 X" \USR|ALT_INV_icnt_dm\ [2] $end
$var wire 1 Y" \USR|ALT_INV_icnt_dm\ [1] $end
$var wire 1 Z" \USR|ALT_INV_icnt_dm\ [0] $end
$var wire 1 [" \USR|ALT_INV_icnt_cm\ [3] $end
$var wire 1 \" \USR|ALT_INV_icnt_cm\ [2] $end
$var wire 1 ]" \USR|ALT_INV_icnt_cm\ [1] $end
$var wire 1 ^" \USR|ALT_INV_icnt_cm\ [0] $end
$var wire 1 _" \USR|ALT_INV_icnt_mm\ [3] $end
$var wire 1 `" \USR|ALT_INV_icnt_mm\ [2] $end
$var wire 1 a" \USR|ALT_INV_icnt_mm\ [1] $end
$var wire 1 b" \USR|ALT_INV_icnt_mm\ [0] $end
$var wire 1 c" \Anzeige_3|ALT_INV_Mux0~0_combout\ $end
$var wire 1 d" \USR|ALT_INV_q_dm\ [3] $end
$var wire 1 e" \USR|ALT_INV_q_dm\ [2] $end
$var wire 1 f" \USR|ALT_INV_q_dm\ [1] $end
$var wire 1 g" \USR|ALT_INV_q_dm\ [0] $end
$var wire 1 h" \Anzeige_2|ALT_INV_Mux0~0_combout\ $end
$var wire 1 i" \USR|ALT_INV_q_cm\ [3] $end
$var wire 1 j" \USR|ALT_INV_q_cm\ [2] $end
$var wire 1 k" \USR|ALT_INV_q_cm\ [1] $end
$var wire 1 l" \USR|ALT_INV_q_cm\ [0] $end
$var wire 1 m" \Anzeige_1|ALT_INV_Mux0~0_combout\ $end
$upscope $end
$upscope $end
$enddefinitions $end
#0
$dumpvars
0!
0"
08
09
1:
x;
1<
1=
1>
1?
1@
1A
0B
0C
0D
xZ
0[
0\
1]
0^
0_
0`
0a
0b
0c
0d
0e
0f
1g
0h
0i
0j
0k
0l
0m
0n
0o
0p
0q
0r
0s
0t
0u
0v
0w
1x
0y
0z
1{
1|
0}
1~
0!!
0"!
1#!
1$!
0%!
1&!
0'!
0(!
0)!
1*!
1+!
0,!
0-!
0.!
1/!
00!
01!
02!
03!
04!
05!
06!
07!
08!
09!
0:!
0;!
1<!
0=!
0>!
0?!
0@!
0A!
0B!
0C!
0D!
0E!
0F!
0G!
0H!
0I!
0J!
0K!
1L!
0M!
0N!
0O!
0P!
0Q!
0R!
0S!
0T!
0U!
0V!
0W!
0X!
0Y!
0Z!
0[!
02"
13"
14"
05"
16"
07"
08"
1G"
1H"
1I"
0J"
1O"
1P"
1Q"
1R"
1S"
1T"
0U"
1V"
1c"
1h"
1m"
1#
0$
0%
0&
0'
0(
0)
1*
0+
0,
0-
0.
0/
00
11
02
03
04
05
06
07
1E
0F
0G
0H
0I
0J
0K
1L
0M
0N
0O
0P
0Q
0R
1S
0T
0U
0V
0W
0X
0Y
0\!
0]!
0^!
0_!
0`!
0a!
0b!
0c!
0d!
0e!
0f!
0g!
0h!
0i!
xj!
xk!
0l!
0m!
0n!
0o!
0p!
0q!
0r!
0s!
0t!
0u!
0v!
0w!
0x!
0y!
0z!
0{!
0|!
0}!
0~!
0!"
0""
0#"
0$"
0%"
x&"
x'"
0("
0)"
0*"
0+"
x,"
x-"
1."
1/"
10"
11"
19"
1:"
1;"
1<"
1="
1>"
1?"
1@"
1A"
1B"
1C"
1D"
1E"
1F"
1K"
1L"
1M"
1N"
1W"
1X"
1Y"
1Z"
1["
1\"
1]"
1^"
1_"
1`"
1a"
1b"
1d"
1e"
1f"
1g"
1i"
1j"
1k"
1l"
$end
#10000
1!
1B
1[
1\
1i!
1g!
1+"
1'!
1)"
0L"
0G"
0N"
0D"
0F"
0]
1u
0x
1y
0{
0&!
1(!
1)!
0+!
1J"
0I"
17"
1z
1v
0*!
1,!
#20000
0!
0B
0[
0\
#30000
1!
1B
1[
1\
0i!
1h!
0g!
1f!
0+"
0'!
1*"
0)"
1("
0K"
1L"
0M"
1G"
1N"
0C"
1D"
0E"
1F"
1]
0u
0v
1w
1x
0y
0z
1^
0~
0$!
0)!
1+!
0(!
0,!
1-!
0J"
1I"
1U"
18"
1_
1z
0^
0x
1y
1v
0w
1x
0y
0z
1^
0_
1_
1z
0^
0_
#40000
0!
0B
0[
0\
#50000
1!
1B
1[
1\
1.!
1i!
1g!
0*"
0("
1{!
1K"
1M"
0D"
0F"
0b"
0]
1u
0x
1y
1&!
1*!
0-!
0/!
14!
0z
1^
0v
1w
1x
1_
#60000
0!
0B
0[
0\
#70000
1!
1B
1[
1\
0.!
1e!
0i!
0h!
0f!
1+"
1'!
1)"
0L"
0G"
0N"
1C"
1E"
1F"
0B"
0_
1h
1]
0u
1v
0w
1z
0^
0&!
1(!
1)!
0+!
1J"
0I"
1_
0h
0x
0v
1i
0*!
1,!
0i
#80000
0!
0B
0[
0\
#90000
1!
1B
1[
1\
1i!
0g!
1f!
0+"
0'!
1*"
0)"
1("
0K"
1L"
0M"
1G"
1N"
0C"
1D"
0F"
0]
1u
1x
0y
0z
1^
0)!
1+!
0(!
0,!
1-!
0J"
1I"
0_
1h
1z
0^
1v
1_
0h
1i
0i
#100000
0!
0B
0[
0\
#110000
1!
1B
1[
1\
1.!
0i!
1h!
1g!
0*"
0("
0{!
1z!
1K"
1M"
0D"
0E"
1F"
0a"
1b"
1]
0u
0v
1w
0x
1y
1&!
1*!
0-!
1/!
0z
1^
1x
1v
0w
0x
0_
1h
1i
#120000
0!
0B
0[
0\
#130000
1!
1B
1[
1\
0.!
0e!
1d!
1i!
0g!
0f!
1+"
1'!
1)"
0L"
0G"
0N"
1C"
1D"
0F"
0A"
1B"
1_
0h
0i
1j
0]
1u
1x
0y
1z
0^
0&!
1(!
1)!
0+!
1J"
0I"
0_
0z
0v
1w
1k
1i
0j
0*!
1,!
0k
0x
1y
1z
#140000
0!
0B
0[
0\
#150000
1!
1B
1[
1\
0i!
0h!
1f!
0+"
0'!
1*"
0)"
1("
0K"
1L"
0M"
1G"
1N"
0C"
1E"
1F"
1]
0u
1v
0w
0z
1^
0)!
1+!
0(!
0,!
1-!
0J"
1I"
1_
1x
0y
0v
1z
0^
0_
#160000
0!
0B
0[
0\
#170000
1!
1B
1[
1\
1.!
1i!
1g!
0*"
0("
1{!
1K"
1M"
0D"
0F"
0b"
0]
1u
0x
1y
1&!
1*!
0-!
0/!
10!
04!
0z
1^
1v
1_
#180000
0!
0B
0[
0\
#190000
1!
1B
1[
1\
0.!
1e!
0i!
1h!
0g!
0f!
1+"
1'!
1)"
0L"
0G"
0N"
1C"
1D"
0E"
1F"
0B"
0_
1h
1]
0u
0v
1w
1x
0y
1z
0^
0&!
1(!
1)!
0+!
1J"
0I"
1_
0h
0z
0x
1y
1v
0w
0i
1j
0*!
1,!
1k
1x
0y
1z
1i
0j
0k
0z
#200000
0!
0B
0[
0\
#210000
1!
1B
1[
1\
1i!
1g!
0+"
0'!
1*"
0)"
1("
0K"
1L"
0M"
1G"
1N"
0D"
0F"
0]
1u
0x
1y
0)!
1+!
0(!
0,!
1-!
0J"
1I"
1z
0v
1w
1x
#220000
0!
0B
0[
0\
#230000
1!
1B
1[
1\
1.!
0i!
0h!
1f!
0*"
0("
0{!
1y!
0z!
1K"
1M"
0C"
1E"
1F"
1a"
0`"
1b"
1]
0u
1v
0w
0z
1^
1&!
1*!
0-!
1/!
0_
1h
0x
0v
0i
1j
1k
#240000
0!
0B
0[
0\
#250000
1!
1B
1[
1\
0.!
0e!
0d!
1c!
1i!
0g!
0f!
1+"
1'!
1)"
0L"
0G"
0N"
1C"
1D"
0F"
0@"
1A"
1B"
1_
0h
1i
0j
0k
1l
0]
1u
1x
0y
1z
0^
1{
1$!
0&!
1(!
1)!
0+!
1J"
0I"
0U"
07"
0_
0z
1v
1m
1k
0l
0i
0*!
1,!
0m
#260000
0!
0B
0[
0\
#270000
1!
1B
1[
1\
0i!
1h!
1g!
0+"
0'!
1*"
0)"
1("
0K"
1L"
0M"
1G"
1N"
0D"
0E"
1F"
1]
0u
0v
1w
0x
1y
0{
0)!
1+!
0(!
0,!
1-!
0J"
1I"
17"
1z
1x
1v
0w
0x
#280000
0!
0B
0[
0\
#290000
1!
1B
1[
1\
1.!
1i!
0g!
1f!
0*"
0("
1{!
1K"
1M"
0C"
1D"
0F"
0b"
0]
1u
1x
0y
0z
1^
0$!
1&!
1*!
0-!
0/!
14!
1U"
1_
1z
0^
0v
1w
0x
1y
0_
0z
1^
1_
#300000
0!
0B
0[
0\
#310000
1!
1B
1[
1\
0.!
1e!
0i!
0h!
0f!
1+"
1'!
1)"
0L"
0G"
0N"
1C"
1E"
1F"
0B"
0_
1h
1]
0u
1v
0w
1z
0^
0&!
1(!
1)!
0+!
1J"
0I"
1_
0h
1x
0y
0v
1i
0*!
1,!
0z
0i
#320000
0!
0B
0[
0\
#330000
1!
1B
1[
1\
1i!
1g!
0+"
0'!
1*"
0)"
1("
0K"
1L"
0M"
1G"
1N"
0D"
0F"
0]
1u
0x
1y
0)!
1+!
0(!
0,!
1-!
0J"
1I"
1z
1v
#340000
0!
0B
0[
0\
#350000
1!
1B
1[
1\
1.!
0i!
1h!
0g!
1f!
0*"
0("
0{!
1z!
1K"
1M"
0C"
1D"
0E"
1F"
0a"
1b"
1]
0u
0v
1w
1x
0y
0z
1^
1&!
1*!
0-!
1/!
0_
1h
1z
0^
0x
1y
1v
0w
1x
0y
0z
1^
1_
0h
1i
0i
0_
1h
1z
0^
1_
0h
1i
0i
#360000
0!
0B
0[
0\
#370000
1!
1B
1[
1\
0.!
1i!
1g!
1+"
1'!
1)"
0L"
0G"
0N"
0D"
0F"
0]
1u
0x
1y
0&!
1(!
1)!
0+!
1J"
0I"
0z
1^
0v
1w
0*!
1,!
1x
0_
1h
1i
#380000
0!
0B
0[
0\
#390000
1!
1B
1[
1\
0e!
1d!
0i!
0h!
0f!
0+"
0'!
1*"
0)"
1("
0K"
1L"
0M"
1G"
1N"
1C"
1E"
1F"
0A"
1B"
1_
0h
0i
1j
1]
0u
1v
0w
1z
0^
0)!
1+!
0(!
0,!
1-!
0J"
1I"
0_
0x
0v
0k
1l
1i
0j
1k
0l
1m
0m
#400000
0!
0B
0[
0\
#410000
1!
1B
1[
1\
1.!
1i!
0g!
1f!
0*"
0("
1{!
1K"
1M"
0C"
1D"
0F"
0b"
0]
1u
1x
0y
0z
1^
1&!
1*!
0-!
0/!
00!
11!
04!
1_
1z
0^
1v
0S"
12!
0_
#420000
0!
0B
0[
0\
#430000
1!
1B
1[
1\
0.!
0i!
1h!
1g!
1+"
1'!
1)"
0L"
0G"
0N"
0D"
0E"
1F"
1]
0u
0v
1w
0x
1y
0&!
1(!
1)!
0+!
1J"
0I"
0z
1^
1x
1v
0w
0*!
1,!
0x
1_
#440000
0!
0B
0[
0\
#450000
1!
1B
1[
1\
1e!
1i!
0g!
0f!
0+"
0'!
1*"
0)"
1("
0K"
1L"
0M"
1G"
1N"
1C"
1D"
0F"
0B"
0_
1h
0]
1u
1x
0y
1z
0^
0)!
1+!
0(!
0,!
1-!
0J"
1I"
1_
0h
0z
0v
1w
0i
1j
0k
1l
0x
1y
1i
0j
1k
0l
1z
1m
0m
#460000
0!
0B
0[
0\
#470000
1!
1B
1[
1\
1.!
0i!
0h!
1f!
0*"
0("
0{!
0y!
1x!
0z!
1K"
1M"
0C"
1E"
1F"
1a"
0_"
1`"
1b"
1]
0u
1v
0w
0z
1^
1&!
1*!
0-!
1/!
0_
1h
1x
0y
0v
1z
0^
0i
1j
0k
1l
1_
0h
1i
0j
1m
1k
0l
0m
#480000
0!
0B
0[
0\
#490000
1!
1B
1[
1\
0.!
1i!
1g!
1+"
1'!
1)"
0L"
0G"
0N"
0D"
0F"
0]
1u
0x
1y
0&!
1(!
1)!
0+!
1J"
0I"
0z
1^
1v
0*!
1,!
0_
1h
0i
1j
0k
1l
1m
#500000
0!
0B
0[
0\
#510000
1!
1B
1[
1\
0e!
0d!
0c!
1b!
0i!
1h!
0g!
0f!
0+"
0'!
1*"
0)"
1("
0K"
1L"
0M"
1G"
1N"
1C"
1D"
0E"
1F"
0?"
1@"
1A"
1B"
1_
0h
1i
0j
1k
0l
0m
1n
1]
0u
0v
1w
1x
0y
1z
0^
1{
1~
1$!
0)!
1+!
0(!
0,!
1-!
0J"
1I"
0U"
08"
07"
0_
0z
0x
1y
1v
0w
1o
1m
0n
0k
0i
0o
1x
0y
1z
0z
#520000
0!
0B
0[
0\
#530000
1!
1B
1[
1\
1.!
1i!
1g!
0*"
0("
1{!
1K"
1M"
0D"
0F"
0b"
0]
1u
0x
1y
0{
1&!
1*!
0-!
0/!
13!
14!
17"
1z
0v
1w
0T"
02!
04!
1=!
1x
#540000
0!
0B
0[
0\
#550000
1!
1B
1[
1\
0.!
0i!
0h!
1f!
1+"
1'!
1)"
0L"
0G"
0N"
0C"
1E"
1F"
1]
0u
1v
0w
0z
1^
0~
0$!
0&!
1(!
1)!
0+!
1J"
0I"
1U"
18"
1_
0x
0v
0*!
1,!
#560000
0!
0B
0[
0\
#570000
1!
1B
1[
1\
1e!
1i!
0g!
0f!
0+"
0'!
1*"
0)"
1("
0K"
1L"
0M"
1G"
1N"
1C"
1D"
0F"
0B"
0_
1h
0]
1u
1x
0y
1z
0^
0)!
1+!
0(!
0,!
1-!
0J"
1I"
1_
0h
0z
1v
1i
0i
#580000
0!
0B
0[
0\
#590000
1!
1B
1[
1\
1.!
0i!
1h!
1g!
0*"
0("
0{!
0x!
1!"
1K"
1M"
0D"
0E"
1F"
0^"
1_"
1b"
1]
0u
0v
1w
0x
1y
1&!
1*!
0-!
1/!
01!
03!
0<!
1>!
1z
1x
1v
0w
1T"
1S"
0=!
0x
#600000
0!
0B
0[
0\
#610000
1!
1B
1[
1\
0.!
1i!
0g!
1f!
1+"
1'!
1)"
0L"
0G"
0N"
0C"
1D"
0F"
0]
1u
1x
0y
0z
1^
0&!
1(!
1)!
0+!
1J"
0I"
0_
1h
1z
0^
0v
1w
0*!
1,!
0x
1y
1_
0h
1i
0i
0z
1^
0_
1h
1i
#620000
0!
0B
0[
0\
#630000
1!
1B
1[
1\
0e!
1d!
0i!
0h!
0f!
0+"
0'!
1*"
0)"
1("
0K"
1L"
0M"
1G"
1N"
1C"
1E"
1F"
0A"
1B"
1_
0h
0i
1j
1]
0u
1v
0w
1z
0^
0)!
1+!
0(!
0,!
1-!
0J"
1I"
0_
1x
0y
0v
1k
1i
0j
0k
0z
#640000
0!
0B
0[
0\
#650000
1!
1B
1[
1\
1.!
1i!
1g!
0*"
0("
1{!
1K"
1M"
0D"
0F"
0b"
0]
1u
0x
1y
1&!
1*!
0-!
0/!
14!
1z
1v
#660000
0!
0B
0[
0\
#670000
1!
1B
1[
1\
0.!
0i!
1h!
0g!
1f!
1+"
1'!
1)"
0L"
0G"
0N"
0C"
1D"
0E"
1F"
1]
0u
0v
1w
1x
0y
0z
1^
0&!
1(!
1)!
0+!
1J"
0I"
1_
1z
0^
0x
1y
1v
0w
0*!
1,!
1x
0y
0z
1^
0_
1_
1z
0^
0_
#680000
0!
0B
0[
0\
#690000
1!
1B
1[
1\
1i!
1g!
0+"
0'!
1*"
0)"
1("
0K"
1L"
0M"
1G"
1N"
0D"
0F"
0]
1u
0x
1y
0)!
1+!
0(!
0,!
1-!
0J"
1I"
0z
1^
0v
1w
1x
1_
#700000
0!
0B
0[
0\
#710000
1!
1B
1[
1\
1.!
1e!
0i!
0h!
0f!
0*"
0("
0{!
1z!
1K"
1M"
1C"
1E"
1F"
0B"
0a"
1b"
0_
1h
1]
0u
1v
0w
1z
0^
1&!
1*!
0-!
1/!
1_
0h
0x
0v
0i
1j
1k
1i
0j
0k
#720000
0!
0B
0[
0\
#730000
1!
1B
1[
1\
0.!
1i!
0g!
1f!
1+"
1'!
1)"
0L"
0G"
0N"
0C"
1D"
0F"
0]
1u
1x
0y
0z
1^
0&!
1(!
1)!
0+!
1J"
0I"
0_
1h
1z
0^
1v
0*!
1,!
1_
0h
0i
1j
1k
1i
0j
0k
#740000
0!
0B
0[
0\
#750000
1!
1B
1[
1\
0i!
1h!
1g!
0+"
0'!
1*"
0)"
1("
0K"
1L"
0M"
1G"
1N"
0D"
0E"
1F"
1]
0u
0v
1w
0x
1y
0)!
1+!
0(!
0,!
1-!
0J"
1I"
0z
1^
1x
1v
0w
0x
0_
1h
0i
1j
1k
#760000
0!
0B
0[
0\
#770000
1!
1B
1[
1\
1.!
0e!
0d!
1c!
1i!
0g!
0f!
0*"
0("
1{!
1K"
1M"
1C"
1D"
0F"
0@"
1A"
1B"
0b"
1_
0h
1i
0j
0k
1l
0]
1u
1x
0y
1z
0^
1{
1$!
1&!
1*!
0-!
0/!
10!
04!
0U"
07"
0_
0z
0v
1w
0m
1n
1k
0l
0i
1m
0n
1o
0x
1y
1z
0o
#780000
0!
0B
0[
0\
